{
  "totates": 1,
  "name": "@totates/fontawesome",
  "version": "1.0.0",
  "license": "EUPL-1.2",
    "module": "index.js",
    "elements": [
        "elements/fontawesome-icon/index.json",
        "elements/fontawesome-back/index.json"
    ],
  "dependencies": {
    "@totates/logging/v1": "^1.0.0"
  }
}
